Presentation pa4
…
``` r
fricatives
```

```
## # A tibble: 50 × 5
##      obs s_cog s_skewness sh_cog sh_skewness
##    <dbl> <dbl>      <dbl>  <dbl>       <dbl>
##  1     1 3285.       2.72  2556.        2.31
##  2     2 3511.       3.09  2781.        2.47
##  3     3 4029.       3.33  2979.        2.48
##  4     4 4123.       3.00  2997.        2.45
##  5     5 4664.       2.88  3020.        2.65
##  6     6 4680.       3.84  3097.        2.78
##  7     7 4793.       3.53  3165.        2.10
##  8     8 4811.       3.51  3253.        2.74
##  9     9 4874.       3.43  3405.        2.78
## 10    10 4879.       3.54  3432.        2.63
## # ℹ 40 more rows
```
…
``` r
model_data <- fricatives_tidy |>
  filter(sound == "s") |>
  pivot_wider(
    names_from = measurement,
    values_from = value
  ) |>
  select(obs, cog, skewness)
model_data
```

```
## # A tibble: 50 × 3
##      obs   cog skewness
##    <int> <dbl>    <dbl>
##  1     1 3285.     2.72
##  2     2 3511.     3.09
##  3     3 4029.     3.33
##  4     4 4123.     3.00
##  5     5 4664.     2.88
##  6     6 4680.     3.84
##  7     7 4793.     3.53
##  8     8 4811.     3.51
##  9     9 4874.     3.43
## 10    10 4879.     3.54
## # ℹ 40 more rows
```
…
``` r
assumptions
```

```
## # A tibble: 142 × 2
##        x     y
##    <dbl> <dbl>
##  1  55.4  97.2
##  2  51.5  96.0
##  3  46.2  94.5
##  4  42.8  91.4
##  5  40.8  88.3
##  6  38.7  84.9
##  7  35.6  79.9
##  8  33.1  77.6
##  9  29.0  74.5
## 10  26.2  71.4
## # ℹ 132 more rows
```
…
